	a byte  "              *************************************************************************************************    ",0
	b byte  "              ***                                                                               	    ***    ",0
	d byte  "              ***                            WELCOME TO THE PROJECT                                         ***    ",0
	e byte  "              ***                NAMELY        :        SMART SHOP MODULE                                   ***    ",0
	f byte  "              ***                SUBMITTED BY  :        HUZAIFA HAMID & NAZAKAT EJAZ                        ***    ",0
	h byte  "              ***                SUBMITTED TO  :        SHAKIR ULLAH SHAH                                   ***    ",0
	id byte "              ***                OFFICIAL ID'S :        P176151 (HUZAIFA) , P176083 (NAZAKAT)               ***    ",0